9,1	0,27	0,45	10,6	0,035	28	124	0,997	3,2	0,46	10,4	9
6,6	0,36	0,29	1,6	0,021	24	85	0,98965	3,41	0,61	12,4	9
7,4	0,24	0,36	2	0,031	27	139	0,99055	3,28	0,48	12,5	9
6,9	0,36	0,34	4,2	0,018	57	119	0,9898	3,28	0,36	12,7	9
7,1	0,26	0,49	2,2	0,032	31	113	0,9903	3,37	0,42	12,9	9
