12.37	.94	1.36	10.6	88	1.98	.57	.28	.42	1.95	1.05	1.82	520	2
12.33	1.1	2.28	16	101	2.05	1.09	.63	.41	3.27	1.25	1.67	680	2
12.64	1.36	2.02	16.8	100	2.02	1.41	.53	.62	5.75	.98	1.59	450	2
13.67	1.25	1.92	18	94	2.1	1.79	.32	.73	3.8	1.23	2.46	630	2
12.37	1.13	2.16	19	87	3.5	3.1	.19	1.87	4.45	1.22	2.87	420	2
12.17	1.45	2.53	19	104	1.89	1.75	.45	1.03	2.95	1.45	2.23	355	2
12.37	1.21	2.56	18.1	98	2.42	2.65	.37	2.08	4.6	1.19	2.3	678	2
13.11	1.01	1.7	15	78	2.98	3.18	.26	2.28	5.3	1.12	3.18	502	2
12.37	1.17	1.92	19.6	78	2.11	2	.27	1.04	4.68	1.12	3.48	510	2
13.34	.94	2.36	17	110	2.53	1.3	.55	.42	3.17	1.02	1.93	750	2
12.21	1.19	1.75	16.8	151	1.85	1.28	.14	2.5	2.85	1.28	3.07	718	2
12.29	1.61	2.21	20.4	103	1.1	1.02	.37	1.46	3.05	.906	1.82	870	2
13.86	1.51	2.67	25	86	2.95	2.86	.21	1.87	3.38	1.36	3.16	410	2
13.49	1.66	2.24	24	87	1.88	1.84	.27	1.03	3.74	.98	2.78	472	2
12.99	1.67	2.6	30	139	3.3	2.89	.21	1.96	3.35	1.31	3.5	985	2
11.96	1.09	2.3	21	101	3.38	2.14	.13	1.65	3.21	.99	3.13	886	2
11.66	1.88	1.92	16	97	1.61	1.57	.34	1.15	3.8	1.23	2.14	428	2
13.03	.9	1.71	16	86	1.95	2.03	.24	1.46	4.6	1.19	2.48	392	2
11.84	2.89	2.23	18	112	1.72	1.32	.43	.95	2.65	.96	2.52	500	2
12.33	.99	1.95	14.8	136	1.9	1.85	.35	2.76	3.4	1.06	2.31	750	2
12.7	3.87	2.4	23	101	2.83	2.55	.43	1.95	2.57	1.19	3.13	463	2
12	.92	2	19	86	2.42	2.26	.3	1.43	2.5	1.38	3.12	278	2
12.72	1.81	2.2	18.8	86	2.2	2.53	.26	1.77	3.9	1.16	3.14	714	2
12.08	1.13	2.51	24	78	2	1.58	.4	1.4	2.2	1.31	2.72	630	2
13.05	3.86	2.32	22.5	85	1.65	1.59	.61	1.62	4.8	.84	2.01	515	2
11.84	.89	2.58	18	94	2.2	2.21	.22	2.35	3.05	.79	3.08	520	2
12.67	.98	2.24	18	99	2.2	1.94	.3	1.46	2.62	1.23	3.16	450	2
12.16	1.61	2.31	22.8	90	1.78	1.69	.43	1.56	2.45	1.33	2.26	495	2
11.65	1.67	2.62	26	88	1.92	1.61	.4	1.34	2.6	1.36	3.21	562	2
11.64	2.06	2.46	21.6	84	1.95	1.69	.48	1.35	2.8	1	2.75	680	2
12.08	1.33	2.3	23.6	70	2.2	1.59	.42	1.38	1.74	1.07	3.21	625	2
12.08	1.83	2.32	18.5	81	1.6	1.5	.52	1.64	2.4	1.08	2.27	480	2
12	1.51	2.42	22	86	1.45	1.25	.5	1.63	3.6	1.05	2.65	450	2
12.69	1.53	2.26	20.7	80	1.38	1.46	.58	1.62	3.05	.96	2.06	495	2
12.29	2.83	2.22	18	88	2.45	2.25	.25	1.99	2.15	1.15	3.3	290	2
11.62	1.99	2.28	18	98	3.02	2.26	.17	1.35	3.25	1.16	2.96	345	2
12.47	1.52	2.2	19	162	2.5	2.27	.32	3.28	2.6	1.16	2.63	937	2
11.81	2.12	2.74	21.5	134	1.6	.99	.14	1.56	2.5	.95	2.26	625	2
12.29	1.41	1.98	16	85	2.55	2.5	.29	1.77	2.9	1.23	2.74	428	2
12.37	1.07	2.1	18.5	88	3.52	3.75	.24	1.95	4.5	1.04	2.77	660	2
12.29	3.17	2.21	18	88	2.85	2.99	.45	2.81	2.3	1.42	2.83	406	2
12.08	2.08	1.7	17.5	97	2.23	2.17	.26	1.4	3.3	1.27	2.96	710	2
12.6	1.34	1.9	18.5	88	1.45	1.36	.29	1.35	2.45	1.04	2.77	562	2
12.34	2.45	2.46	21	98	2.56	2.11	.34	1.31	2.8	.8	3.38	438	2
11.82	1.72	1.88	19.5	86	2.5	1.64	.37	1.42	2.06	.94	2.44	415	2
12.51	1.73	1.98	20.5	85	2.2	1.92	.32	1.48	2.94	1.04	3.57	672	2
12.42	2.55	2.27	22	90	1.68	1.84	.66	1.42	2.7	.86	3.3	315	2
12.25	1.73	2.12	19	80	1.65	2.03	.37	1.63	3.4	1	3.17	510	2
12.72	1.75	2.28	22.5	84	1.38	1.76	.48	1.63	3.3	.88	2.42	488	2
12.22	1.29	1.94	19	92	2.36	2.04	.39	2.08	2.7	.86	3.02	312	2
11.61	1.35	2.7	20	94	2.74	2.92	.29	2.49	2.65	.96	3.26	680	2
11.46	3.74	1.82	19.5	107	3.18	2.58	.24	3.58	2.9	.75	2.81	562	2
12.52	2.43	2.17	21	88	2.55	2.27	.26	1.22	2	.9	2.78	325	2
11.76	2.68	2.92	20	103	1.75	2.03	.6	1.05	3.8	1.23	2.5	607	2
11.41	.74	2.5	21	88	2.48	2.01	.42	1.44	3.08	1.1	2.31	434	2
12.08	1.39	2.5	22.5	84	2.56	2.29	.43	1.04	2.9	.93	3.19	385	2
11.03	1.51	2.2	21.5	85	2.46	2.17	.52	2.01	1.9	1.71	2.87	407	2
11.82	1.47	1.99	20.8	86	1.98	1.6	.3	1.53	1.95	.95	3.33	495	2
12.42	1.61	2.19	22.5	108	2	2.09	.34	1.61	2.06	1.06	2.96	345	2
12.77	3.43	1.98	16	80	1.63	1.25	.43	.83	3.4	.7	2.12	372	2
12	3.43	2	19	87	2	1.64	.37	1.87	1.28	.93	3.05	564	2
11.45	2.4	2.42	20	96	2.9	2.79	.32	1.83	3.25	.8	3.39	625	2
11.56	2.05	3.23	28.5	119	3.18	5.08	.47	1.87	6	.93	3.69	465	2
12.42	4.43	2.73	26.5	102	2.2	2.13	.43	1.71	2.08	.92	3.12	365	2
13.05	5.8	2.13	21.5	86	2.62	2.65	.3	2.01	2.6	.73	3.1	380	2
11.87	4.31	2.39	21	82	2.86	3.03	.21	2.91	2.8	.75	3.64	380	2
12.07	2.16	2.17	21	85	2.6	2.65	.37	1.35	2.76	.86	3.28	378	2
12.43	1.53	2.29	21.5	86	2.74	3.15	.39	1.77	3.94	.69	2.84	352	2
11.79	2.13	2.78	28.5	92	2.13	2.24	.58	1.76	3	.97	2.44	466	2
12.37	1.63	2.3	24.5	88	2.22	2.45	.4	1.9	2.12	.89	2.78	342	2
12.04	4.3	2.38	22	80	2.1	1.75	.42	1.35	2.6	.79	2.57	580	2

