0,72	0,42	0,48	0,5	0,65	0,77	0,79	  imU
0,79	0,41	0,48	0,5	0,66	0,81	0,83	  imU
0,83	0,48	0,48	0,5	0,65	0,76	0,79	  imU
0,69	0,43	0,48	0,5	0,59	0,74	0,77	  imU
0,79	0,36	0,48	0,5	0,46	0,82	0,7	  imU
0,78	0,33	0,48	0,5	0,57	0,77	0,79	  imU
0,75	0,37	0,48	0,5	0,64	0,7	0,74	  imU
0,59	0,29	0,48	0,5	0,64	0,75	0,77	  imU
0,67	0,37	0,48	0,5	0,54	0,64	0,68	  imU
0,66	0,48	0,48	0,5	0,54	0,7	0,74	  imU
0,64	0,46	0,48	0,5	0,48	0,73	0,76	  imU
0,76	0,71	0,48	0,5	0,5	0,71	0,75	  imU
0,84	0,49	0,48	0,5	0,55	0,78	0,74	  imU
0,77	0,55	0,48	0,5	0,51	0,78	0,74	  imU
0,81	0,44	0,48	0,5	0,42	0,67	0,68	  imU
0,58	0,6	0,48	0,5	0,59	0,73	0,76	  imU
0,63	0,42	0,48	0,5	0,48	0,77	0,8	  imU
0,62	0,42	0,48	0,5	0,58	0,79	0,81	  imU
0,86	0,39	0,48	0,5	0,59	0,89	0,9	  imU
0,81	0,53	0,48	0,5	0,57	0,87	0,88	  imU
0,87	0,49	0,48	0,5	0,61	0,76	0,79	  imU
0,47	0,46	0,48	0,5	0,62	0,74	0,77	  imU
0,76	0,41	0,48	0,5	0,5	0,59	0,62	  imU
0,7	0,53	0,48	0,5	0,7	0,86	0,87	  imU
0,64	0,45	0,48	0,5	0,67	0,61	0,66	  imU
0,81	0,52	0,48	0,5	0,57	0,78	0,8	  imU
0,73	0,26	0,48	0,5	0,57	0,75	0,78	  imU
0,49	0,61	  1.00	0,5	0,56	0,71	0,74	  imU
0,88	0,42	0,48	0,5	0,52	0,73	0,75	  imU
0,84	0,54	0,48	0,5	0,75	0,92	0,7	  imU
0,63	0,51	0,48	0,5	0,64	0,72	0,76	  imU
0,86	0,55	0,48	0,5	0,63	0,81	0,83	  imU
0,79	0,54	0,48	0,5	0,5	0,66	0,68	  imU
0,57	0,38	0,48	0,5	0,06	0,49	0,33	  imU
0,78	0,44	0,48	0,5	0,45	0,73	0,68	  imU
