11,6	0,58	0,66	2,2	0,074	10	47	1,0008	3,25	0,57	9	3
10,4	0,61	0,49	2,1	0,2	5	16	0,9994	3,16	0,63	8,4	3
7,4	1,185	0	4,25	0,097	5	14	0,9966	3,63	0,54	10,7	3
10,4	0,44	0,42	1,5	0,145	34	48	0,99832	3,38	0,86	9,9	3
8,3	1,02	0,02	3,4	0,084	6	11	0,99892	3,48	0,49	11	3
7,6	1,58	0	2,1	0,137	5	9	0,99476	3,5	0,4	10,9	3
6,8	0,815	0	1,2	0,267	16	29	0,99471	3,32	0,51	9,8	3
7,3	0,98	0,05	2,1	0,061	20	49	0,99705	3,31	0,55	9,7	3
7,1	0,875	0,05	5,7	0,082	3	14	0,99808	3,4	0,52	10,2	3
6,7	0,76	0,02	1,8	0,078	6	12	0,996	3,55	0,63	9,95	3
